{
  "project_info": {
    "project_number": "739286271455",
    "firebase_url": "https://mentoripunch.firebaseio.com",
    "project_id": "mentoripunch",
    "storage_bucket": "mentoripunch.appspot.com"
  },
  "client": [
    {
      "client_info": {
        "mobilesdk_app_id": "1:739286271455:android:7c02edbd07fb375f",
        "android_client_info": {
          "package_name": "com.hautecouture.test1"
        }
      },
      "oauth_client": [
        {
          "client_id": "739286271455-rmkp9va4mnf8o4ok5ld75nfvkfgdilao.apps.googleusercontent.com",
          "client_type": 3
        }
      ],
      "api_key": [
        {
          "current_key": "AIzaSyAf2LCzjHh2-q7JwFDHbybaHhFDECDN1PY"
        }
      ],
      "services": {
        "analytics_service": {
          "status": 1
        },
        "appinvite_service": {
          "status": 1,
          "other_platform_oauth_client": []
        },
        "ads_service": {
          "status": 2
        }
      }
    },
    {
      "client_info": {
        "mobilesdk_app_id": "1:739286271455:android:65a6d7d7d29b42f8",
        "android_client_info": {
          "package_name": "com.hautecouture.test"
        }
      },
      "oauth_client": [
        {
          "client_id": "739286271455-rmkp9va4mnf8o4ok5ld75nfvkfgdilao.apps.googleusercontent.com",
          "client_type": 3
        }
      ],
      "api_key": [
        {
          "current_key": "AIzaSyAf2LCzjHh2-q7JwFDHbybaHhFDECDN1PY"
        }
      ],
      "services": {
        "analytics_service": {
          "status": 1
        },
        "appinvite_service": {
          "status": 1,
          "other_platform_oauth_client": []
        },
        "ads_service": {
          "status": 2
        }
      }
    },
    {
      "client_info": {
        "mobilesdk_app_id": "1:739286271455:android:6a877ef5b42b5259",
        "android_client_info": {
          "package_name": "com.huatecouture.test2"
        }
      },
      "oauth_client": [
        {
          "client_id": "739286271455-rmkp9va4mnf8o4ok5ld75nfvkfgdilao.apps.googleusercontent.com",
          "client_type": 3
        }
      ],
      "api_key": [
        {
          "current_key": "AIzaSyAf2LCzjHh2-q7JwFDHbybaHhFDECDN1PY"
        }
      ],
      "services": {
        "analytics_service": {
          "status": 1
        },
        "appinvite_service": {
          "status": 1,
          "other_platform_oauth_client": []
        },
        "ads_service": {
          "status": 2
        }
      }
    },
    {
      "client_info": {
        "mobilesdk_app_id": "1:739286271455:android:56c0ac82d6e88262",
        "android_client_info": {
          "package_name": "com.hautecouture.test3"
        }
      },
      "oauth_client": [
        {
          "client_id": "739286271455-rmkp9va4mnf8o4ok5ld75nfvkfgdilao.apps.googleusercontent.com",
          "client_type": 3
        }
      ],
      "api_key": [
        {
          "current_key": "AIzaSyAf2LCzjHh2-q7JwFDHbybaHhFDECDN1PY"
        }
      ],
      "services": {
        "analytics_service": {
          "status": 1
        },
        "appinvite_service": {
          "status": 1,
          "other_platform_oauth_client": []
        },
        "ads_service": {
          "status": 2
        }
      }
    },
    {
      "client_info": {
        "mobilesdk_app_id": "1:739286271455:android:a813960adacfb7fc",
        "android_client_info": {
          "package_name": "com.hautecouture.gumpunchi"
        }
      },
      "oauth_client": [
        {
          "client_id": "739286271455-rmkp9va4mnf8o4ok5ld75nfvkfgdilao.apps.googleusercontent.com",
          "client_type": 3
        }
      ],
      "api_key": [
        {
          "current_key": "AIzaSyAf2LCzjHh2-q7JwFDHbybaHhFDECDN1PY"
        }
      ],
      "services": {
        "analytics_service": {
          "status": 1
        },
        "appinvite_service": {
          "status": 1,
          "other_platform_oauth_client": []
        },
        "ads_service": {
          "status": 2
        }
      }
    },
    {
      "client_info": {
        "mobilesdk_app_id": "1:739286271455:android:ceda4973ef1e9c62",
        "android_client_info": {
          "package_name": "com.hautecouture.rankings"
        }
      },
      "oauth_client": [
        {
          "client_id": "739286271455-rmkp9va4mnf8o4ok5ld75nfvkfgdilao.apps.googleusercontent.com",
          "client_type": 3
        }
      ],
      "api_key": [
        {
          "current_key": "AIzaSyAf2LCzjHh2-q7JwFDHbybaHhFDECDN1PY"
        }
      ],
      "services": {
        "analytics_service": {
          "status": 1
        },
        "appinvite_service": {
          "status": 1,
          "other_platform_oauth_client": []
        },
        "ads_service": {
          "status": 2
        }
      }
    },
    {
      "client_info": {
        "mobilesdk_app_id": "1:739286271455:android:b35b9cefa93a2c81",
        "android_client_info": {
          "package_name": "com.hautecouture.mentorijump"
        }
      },
      "oauth_client": [
        {
          "client_id": "739286271455-rmkp9va4mnf8o4ok5ld75nfvkfgdilao.apps.googleusercontent.com",
          "client_type": 3
        }
      ],
      "api_key": [
        {
          "current_key": "AIzaSyAf2LCzjHh2-q7JwFDHbybaHhFDECDN1PY"
        }
      ],
      "services": {
        "analytics_service": {
          "status": 1
        },
        "appinvite_service": {
          "status": 1,
          "other_platform_oauth_client": []
        },
        "ads_service": {
          "status": 2
        }
      }
    },
    {
      "client_info": {
        "mobilesdk_app_id": "1:739286271455:android:cd1d781d46cda017",
        "android_client_info": {
          "package_name": "com.hautecouture.businessfish"
        }
      },
      "oauth_client": [
        {
          "client_id": "739286271455-rmkp9va4mnf8o4ok5ld75nfvkfgdilao.apps.googleusercontent.com",
          "client_type": 3
        }
      ],
      "api_key": [
        {
          "current_key": "AIzaSyAf2LCzjHh2-q7JwFDHbybaHhFDECDN1PY"
        }
      ],
      "services": {
        "analytics_service": {
          "status": 1
        },
        "appinvite_service": {
          "status": 1,
          "other_platform_oauth_client": []
        },
        "ads_service": {
          "status": 2
        }
      }
    },
    {
      "client_info": {
        "mobilesdk_app_id": "1:739286271455:android:e89c4b18f119bc5b",
        "android_client_info": {
          "package_name": "com.hautecouture.marsbaby"
        }
      },
      "oauth_client": [
        {
          "client_id": "739286271455-rmkp9va4mnf8o4ok5ld75nfvkfgdilao.apps.googleusercontent.com",
          "client_type": 3
        }
      ],
      "api_key": [
        {
          "current_key": "AIzaSyAf2LCzjHh2-q7JwFDHbybaHhFDECDN1PY"
        }
      ],
      "services": {
        "analytics_service": {
          "status": 1
        },
        "appinvite_service": {
          "status": 1,
          "other_platform_oauth_client": []
        },
        "ads_service": {
          "status": 2
        }
      }
    },
    {
      "client_info": {
        "mobilesdk_app_id": "1:739286271455:android:cdeb0114203b400c",
        "android_client_info": {
          "package_name": "com.hautecouture.mentori"
        }
      },
      "oauth_client": [
        {
          "client_id": "739286271455-rmkp9va4mnf8o4ok5ld75nfvkfgdilao.apps.googleusercontent.com",
          "client_type": 3
        }
      ],
      "api_key": [
        {
          "current_key": "AIzaSyAf2LCzjHh2-q7JwFDHbybaHhFDECDN1PY"
        }
      ],
      "services": {
        "analytics_service": {
          "status": 1
        },
        "appinvite_service": {
          "status": 1,
          "other_platform_oauth_client": []
        },
        "ads_service": {
          "status": 2
        }
      }
    }
  ],
  "configuration_version": "1"
}